<mxfile host="app.diagrams.net" modified="2021-07-23T01:57:15.000Z" agent="5.0 (Macintosh; Intel Mac OS X 10_15_7) AppleWebKit/537.36 (KHTML, like Gecko) Chrome/91.0.4472.114 Safari/537.36" etag="2rnpbFQAqS6gQ1kG8OaT" version="14.8.3" type="gitlab">
  <diagram id="grg90ZRFDcmjyIQsui-O" name="Page-1">
    <mxGraphModel dx="1703" dy="532" grid="1" gridSize="10" guides="1" tooltips="1" connect="1" arrows="1" fold="1" page="0" pageScale="1" pageWidth="827" pageHeight="1169" math="0" shadow="0">
      <root>
        <mxCell id="0" />
        <mxCell id="1" parent="0" />
        <mxCell id="PxZ3Mje9Eb-vmQNv2YUg-1" value="" style="rounded=0;whiteSpace=wrap;html=1;gradientColor=none;fillColor=none;dashed=1;" vertex="1" parent="1">
          <mxGeometry x="-240" width="520" height="320" as="geometry" />
        </mxCell>
        <mxCell id="PxZ3Mje9Eb-vmQNv2YUg-2" value="" style="rounded=0;whiteSpace=wrap;html=1;gradientColor=none;fillColor=none;dashed=1;" vertex="1" parent="1">
          <mxGeometry x="-800" width="280" height="320" as="geometry" />
        </mxCell>
        <mxCell id="PxZ3Mje9Eb-vmQNv2YUg-3" value="mysql" style="rounded=1;whiteSpace=wrap;html=1;fillColor=#ffcd28;gradientColor=#ffa500;strokeColor=none;" vertex="1" parent="1">
          <mxGeometry x="560" y="40" width="200" height="80" as="geometry" />
        </mxCell>
        <mxCell id="PxZ3Mje9Eb-vmQNv2YUg-4" value="etcd" style="rounded=1;whiteSpace=wrap;html=1;gradientColor=#ffa500;fillColor=#ffcd28;strokeColor=none;" vertex="1" parent="1">
          <mxGeometry x="560" y="160" width="200" height="80" as="geometry" />
        </mxCell>
        <mxCell id="PxZ3Mje9Eb-vmQNv2YUg-6" value="ldb server" style="rounded=1;whiteSpace=wrap;html=1;fillColor=#f8cecc;strokeColor=none;" vertex="1" parent="1">
          <mxGeometry x="-760" y="40" width="200" height="80" as="geometry" />
        </mxCell>
        <mxCell id="PxZ3Mje9Eb-vmQNv2YUg-7" value="" style="rounded=1;whiteSpace=wrap;html=1;fillColor=#e1d5e7;strokeColor=none;" vertex="1" parent="1">
          <mxGeometry x="-200" y="40" width="440" height="240" as="geometry" />
        </mxCell>
        <mxCell id="PxZ3Mje9Eb-vmQNv2YUg-9" value="storage metaserver" style="rounded=1;whiteSpace=wrap;html=1;fillColor=#d5e8d4;strokeColor=none;" vertex="1" parent="1">
          <mxGeometry x="-760" y="200" width="200" height="80" as="geometry" />
        </mxCell>
        <mxCell id="PxZ3Mje9Eb-vmQNv2YUg-10" value="" style="rounded=0;whiteSpace=wrap;html=1;gradientColor=none;fillColor=none;dashed=1;" vertex="1" parent="1">
          <mxGeometry x="520" width="280" height="320" as="geometry" />
        </mxCell>
        <mxCell id="PxZ3Mje9Eb-vmQNv2YUg-12" value="" style="endArrow=classic;startArrow=classic;html=1;dashed=1;" edge="1" parent="1">
          <mxGeometry width="50" height="50" relative="1" as="geometry">
            <mxPoint x="-480" y="160" as="sourcePoint" />
            <mxPoint x="-280" y="160" as="targetPoint" />
          </mxGeometry>
        </mxCell>
        <mxCell id="PxZ3Mje9Eb-vmQNv2YUg-13" value="Table&lt;br&gt;User&lt;br&gt;Udt&lt;br&gt;LdbSchema&lt;br&gt;Synonym&lt;br&gt;SchemaObjPriv&lt;br&gt;......" style="edgeLabel;html=1;align=center;verticalAlign=middle;resizable=0;points=[];" vertex="1" connectable="0" parent="PxZ3Mje9Eb-vmQNv2YUg-12">
          <mxGeometry x="-0.07" y="4" relative="1" as="geometry">
            <mxPoint as="offset" />
          </mxGeometry>
        </mxCell>
        <mxCell id="PxZ3Mje9Eb-vmQNv2YUg-14" value="" style="endArrow=classic;startArrow=classic;html=1;dashed=1;" edge="1" parent="1">
          <mxGeometry width="50" height="50" relative="1" as="geometry">
            <mxPoint x="320" y="159" as="sourcePoint" />
            <mxPoint x="480" y="159" as="targetPoint" />
          </mxGeometry>
        </mxCell>
        <mxCell id="PxZ3Mje9Eb-vmQNv2YUg-15" value="RelationTable&lt;br&gt;key-value" style="edgeLabel;html=1;align=center;verticalAlign=middle;resizable=0;points=[];" vertex="1" connectable="0" parent="PxZ3Mje9Eb-vmQNv2YUg-14">
          <mxGeometry x="-0.025" y="2" relative="1" as="geometry">
            <mxPoint as="offset" />
          </mxGeometry>
        </mxCell>
        <mxCell id="PxZ3Mje9Eb-vmQNv2YUg-16" value="metadata server" style="text;html=1;strokeColor=none;fillColor=none;align=center;verticalAlign=middle;whiteSpace=wrap;rounded=0;" vertex="1" parent="1">
          <mxGeometry x="-170" y="50" width="40" height="20" as="geometry" />
        </mxCell>
        <mxCell id="PxZ3Mje9Eb-vmQNv2YUg-17" value="Catalog" style="rounded=1;whiteSpace=wrap;html=1;fillColor=#b0e3e6;strokeColor=#0e8088;" vertex="1" parent="1">
          <mxGeometry x="-5" y="100" width="50" height="130" as="geometry" />
        </mxCell>
        <mxCell id="PxZ3Mje9Eb-vmQNv2YUg-18" value="MetaAccessor" style="rounded=1;whiteSpace=wrap;html=1;fillColor=#b0e3e6;strokeColor=#0e8088;" vertex="1" parent="1">
          <mxGeometry x="110" y="95" width="50" height="130" as="geometry" />
        </mxCell>
        <mxCell id="PxZ3Mje9Eb-vmQNv2YUg-19" value="CatalogProxy" style="rounded=1;whiteSpace=wrap;html=1;fillColor=#b0e3e6;strokeColor=#0e8088;" vertex="1" parent="1">
          <mxGeometry x="-120" y="100" width="50" height="130" as="geometry" />
        </mxCell>
        <mxCell id="PxZ3Mje9Eb-vmQNv2YUg-20" value="KV&lt;br&gt;RelationTable" style="text;html=1;strokeColor=none;fillColor=none;align=center;verticalAlign=middle;whiteSpace=wrap;rounded=0;" vertex="1" parent="1">
          <mxGeometry x="190" y="110" width="40" height="20" as="geometry" />
        </mxCell>
        <mxCell id="PxZ3Mje9Eb-vmQNv2YUg-21" value="General data model" style="text;html=1;strokeColor=none;fillColor=none;align=center;verticalAlign=middle;whiteSpace=wrap;rounded=0;" vertex="1" parent="1">
          <mxGeometry x="60" y="110" width="40" height="20" as="geometry" />
        </mxCell>
        <mxCell id="PxZ3Mje9Eb-vmQNv2YUg-22" value="General data model" style="text;html=1;strokeColor=none;fillColor=none;align=center;verticalAlign=middle;whiteSpace=wrap;rounded=0;" vertex="1" parent="1">
          <mxGeometry x="-60" y="110" width="40" height="20" as="geometry" />
        </mxCell>
        <mxCell id="PxZ3Mje9Eb-vmQNv2YUg-23" value="rpc message" style="text;html=1;strokeColor=none;fillColor=none;align=center;verticalAlign=middle;whiteSpace=wrap;rounded=0;" vertex="1" parent="1">
          <mxGeometry x="-180" y="130" width="40" height="20" as="geometry" />
        </mxCell>
      </root>
    </mxGraphModel>
  </diagram>
</mxfile>
